841983 108429 525
40148 621127 470
348507 707697 509
685836 346533 509
540218 702369 509
384607 520703 470
313789 244762 407
442155 799137 509
551039 106617 470
113422 378137 443
282961 979474 525
910282 64639 525
513758 701077 509
12225 924920 525
207937 901507 525
73172 396173 443
458208 382611 449
437807 632108 509
778222 244948 509
634823 773468 504
80598 938156 525
843517 271971 525
581684 518168 452
93182 823264 509
789026 253263 509
817802 426030 509
325666 805727 509
279069 827530 509
873869 526680 525
782726 647537 504
73425 382438 443
995388 345598 525
132454 315710 443
216967 586387 470
973948 527509 525
988818 667992 525
448190 80931 449
575528 147807 470
682029 132945 509
385825 70833 443
310140 13 443
278271 466021 449
103778 499641 449
398936 359837 436
708242 824547 468
398126 566916 470
825713 415727 509
787627 332786 509
928407 158932 525
306327 937507 525
302124 584135 470
508756 461279 426
579730 419358 470
371648 531727 470
186481 692959 509
542787 342131 470
971152 938303 507
535733 466148 470
607741 165357 470
710747 599729 509
932738 737931 525
797594 492079 509
567965 95625 470
839228 274567 525
792027 596541 509
80709 275937 443
719618 69650 509
481689 70992 449
732782 853791 525
563299 994506 525
591731 825866 509
350282 266765 441
160036 112445 383
996557 824951 525
844657 387836 525
980189 344374 525
386086 346689 423
278548 807885 509
245362 272013 407
269246 625571 470
616730 966818 525
762017 846905 525
192428 305904 443
978886 612987 525
312281 747862 509
63924 926923 525
388102 173133 443
569586 938394 525
977253 899701 507
272772 865100 525
15533 32448 308
846387 929604 476
427310 619234 470
332730 488515 449
741809 655970 504
334582 291588 384
390366 623630 470
331848 308585 384
867057 786111 525
871995 800850 525
892303 806548 525
729948 847613 525
664798 240795 509
467226 735235 509
57247 382420 443
729505 975782 525
937845 482564 525
37929 508752 449
636634 164815 509
372476 323472 441
699503 719623 504
665132 908082 525
732555 932445 525
185978 310287 443
563276 848289 525
591538 601047 403
185961 845866 525
216653 71087 386
745956 831480 468
836754 184047 509
64237 259280 443
525908 63920 470
304133 458887 449
770606 140655 509
856489 240610 525
950937 806533 525
311972 530979 470
44808 828081 509
315340 57035 443
874741 983370 507
887895 603288 525
63676 887027 525
413887 564162 470
695244 881435 525
833356 985302 525
823386 620626 509
278180 210381 443
837093 352147 509
460627 707409 509
195148 436747 449
515160 649111 509
722541 558995 509
81122 649679 509
727287 411657 509
709339 630296 504
774435 940913 525
955903 114868 525
136542 686637 509
749588 362545 509
214516 279620 443
815267 76985 509
302656 504792 449
439642 730705 509
757875 591821 509
415578 963764 525
841597 978243 507
845871 181475 525
922725 549888 525
566837 805963 509
508673 781649 509
458843 668056 509
457339 388882 449
250279 611809 470
484786 850958 525
478934 836802 509
766021 373180 509
456910 792998 509
155403 307207 443
169152 903404 525
225379 358987 443
29141 313615 443
392558 105205 443
681045 425437 509
662102 514166 509
304112 736943 509
738248 923787 525
335259 283573 389
633135 159472 509
53128 964627 525
443330 506817 444
391665 672242 509
631657 301330 509
56527 281533 443
893675 242294 525
13181 248800 443
573884 296289 470
466107 34817 449
204637 509235 449
261080 758114 509
270914 65164 443
140541 162938 383
475440 827495 509
50600 710697 509
918485 329791 525
958054 631948 525
49785 433868 449
48878 289798 443
251634 753625 509
474256 433975 444
903273 410666 525
862714 437998 525
659108 648270 429
838426 646931 525
845795 198416 525
256683 659281 509
656547 879203 525
619818 103131 470
594571 440908 470
874434 411924 525
609295 169850 470
659289 806293 504
619740 74914 470
982506 995546 427
326134 881659 525
91746 431003 449
38545 873611 525
385375 155092 443
840006 191814 525
135763 198781 383
989527 401281 525
385843 692324 509
173387 945979 525
283862 696433 509
805569 446582 509
865473 418521 525
871316 602484 525
895115 315282 525
5333 552199 470
929860 329519 525
292208 838779 525
466644 958084 525
495924 132659 449
595068 270843 470
816330 882676 525
663816 257573 509
532058 354658 470
752882 647312 504
329108 220840 443
202076 8038 383
941742 892138 507
638246 558016 509
284102 652954 509
20533 677975 509
722691 831154 468
966627 994502 458
909398 895207 445
704833 340139 509
416646 860134 525
969818 265698 525
221955 520648 470
707974 861728 525
319369 374348 441
340601 22277 443
119549 786009 509
506879 416890 444
11329 349559 443
606544 676613 509
689367 950184 525
107386 88310 354
488889 494043 426
652145 835192 504
818447 796166 406
838607 643850 525
475315 576603 470
205022 562050 470
686926 128080 509
424283 263026 449
134951 757174 509
747864 746671 362
690712 394817 509
682288 393639 509
227011 80653 386
911906 768018 525
210691 909488 525
413344 492001 444
371844 493703 449
483479 573219 470
383977 804180 509
170498 417508 449
132956 153749 375
191290 902587 525
378674 708022 509
691256 63736 509
815268 712856 468
897374 147092 525
735263 31399 509
399253 732329 509
509262 563477 470
400244 99148 443
186060 269548 443
571839 562243 421
41088 134945 354
657049 147291 509
726048 196484 509
296655 63986 443
284346 954468 525
297287 185562 443
966161 889529 507
208041 320164 443
406353 349112 436
387933 706803 509
766526 272216 509
471509 643595 509
393861 216313 443
249180 419120 449
733616 82152 509
485457 510197 426
956025 171954 525
680833 366100 509
459168 155891 449
545856 391422 470
339069 659219 509
707528 367586 509
93232 614390 470
308515 742717 509
991603 173579 525
733534 935888 525
121898 968574 525
912320 974601 507
850936 460079 525
702615 323737 509
110167 441671 449
372128 288205 441
10619 390725 443
805610 242193 509
231559 28390 443
639522 952193 525
599231 443629 470
672990 448037 509
344422 204909 443
719117 978060 525
845650 603106 525
61569 932477 525
280959 533511 470
616906 127955 470
477205 156501 449
432559 166336 449
132312 576367 470
232697 960061 525
521250 114901 470
871276 39272 525
681959 799166 504
744905 954470 525
709570 708568 349
968588 561759 525
883788 605318 525
14835 122977 354
596124 486301 470
478941 663631 509
350659 156425 443
235361 944230 525
126617 966996 525
627797 909973 525
254036 275938 407
159950 826526 509
293277 819812 509
442205 679298 509
59226 872467 525
894139 846468 445
193691 141412 383
512428 945591 525
697054 173624 509
895077 599920 525
408199 892534 525
259681 805368 509
536624 878887 525
211204 198088 373
892874 889527 370
540393 805715 509
996599 989803 365
503812 449728 444
818919 773351 468
452525 132556 449
997332 321673 525
525441 239107 470
571995 96854 470
267290 649126 509
845070 779517 525
779217 993927 525
815671 608701 509
415938 659607 509
88490 41047 351
259161 928024 525
190337 812458 509
87892 844058 525
258277 641351 509
819190 880573 525
950777 663958 525
792340 984305 525
729543 501814 509
714832 376908 509
501198 121607 449
873151 659653 525
19252 555241 470
319591 732052 509
976252 215193 525
130313 771783 509
341176 795426 509
966144 627057 525
274929 535684 470
112664 445609 449
237 405908 443
513011 369253 470
338600 812063 509
124539 834289 509
240355 420946 449
530669 843752 525
807091 866655 525
714812 45247 509
265791 141874 443
859886 219857 525
574807 450892 470
891045 758091 525
257657 63978 443
92366 550700 470
586686 164526 470
379623 359752 423
586746 704608 509
928067 638611 525
916758 202322 525
561817 634730 509
8711 462841 449
656096 210446 509
494116 921696 525
411612 597075 470
44397 611676 470
182424 152672 383
864677 599000 525
807043 93340 509
983363 682291 525
299949 745503 509
812682 504011 509
538110 38794 470
405620 145017 443
461783 573232 470
875894 117727 525
526299 283239 470
769773 470806 509
556891 12607 470
606785 392337 470
67636 783779 509
93909 947121 525
933471 616179 525
471568 278594 449
921766 530011 525
702531 909468 525
931337 690783 525
791034 123819 509
408524 87058 443
304437 283164 389
264794 259806 407
720109 84550 509
711067 339191 509
967154 998945 458
203988 290383 443
646698 12264 509
221643 600886 470
237824 358029 441
782315 981577 525
560176 347657 470
664707 509407 509
683362 939167 525
295948 100629 443
334938 236838 407
575899 322691 470
230565 690991 509
797716 870748 525
170572 811914 509
210218 955603 525
864631 923089 476
374416 678785 509
255358 43985 443
786234 667003 504
663253 85712 509
396041 334672 441
682390 54396 509
629889 351601 509
409377 37334 443
805610 908335 525
333496 731178 509
9846 569793 470
635111 160502 509
215088 983208 525
532750 326820 470
832401 695559 504
114243 646680 509
738975 290692 509
659654 347432 509
21995 670025 509
536158 88221 470
276533 906596 525
919697 71684 525
192724 318807 443
118560 952353 525
659199 26379 509
868194 708526 525
258815 696234 509
648130 588015 509
362688 960153 525
867116 328492 525
513653 866724 525
61875 237722 443
929029 230584 525
453179 88724 449
187510 441166 449
568393 999656 525
563421 160080 470
546347 504221 470
238221 189517 443
643936 599790 509
175382 784742 509
933061 447858 525
584512 741620 509
865373 314306 525
678788 568770 509
742520 855831 525
119715 517765 470
406265 696047 509
875572 454933 525
818059 908957 525
595924 823125 509
415931 479923 444
103893 851656 525
131408 968970 525
40797 168499 383
27824 702518 509
814013 621400 509
29887 455728 449
836494 122774 509
511881 42960 449
365037 886004 525
347941 545510 470
754313 433447 509
997066 790128 525
668174 278559 509
32891 453097 449
812608 932440 525
604502 355856 470
597638 654037 509
931482 93738 525
447112 90586 449
179841 352538 443
505380 950904 525
988258 146486 525
540742 664076 509
924206 392428 525
147760 47090 375
756263 643240 504
998006 973077 440
33800 994095 525
725416 247540 509
914068 454664 525
125170 543073 470
362833 314944 441
194209 579049 470
195667 709107 509
823721 761293 468
876796 769906 525
887035 846465 445
932662 7910 525
749225 149459 509
708214 567960 509
712522 682264 504
666780 310501 509
798107 400209 509
524651 111367 470
385149 256429 441
220182 601587 470
372735 484762 449
494059 970277 525
819300 700817 504
241516 1274 443
902831 253459 525
249067 461338 449
887309 284132 525
410421 873032 525
463200 124613 449
137229 172606 383
814344 66070 509
477828 315992 449
918890 548078 525
490937 904088 525
424021 900830 525
344894 753110 509
748790 945187 525
63807 412804 449
298737 103505 443
286526 505687 449
262289 299475 407
677797 746876 504
218511 383372 443
292828 800157 509
606141 35080 470
360896 524620 470
679911 529849 509
872243 135782 525
207355 351874 443
41702 476104 449
152349 583896 470
850269 480308 525
903885 275553 525
638152 975086 525
670439 669729 336
281109 984002 525
998845 269737 525
554613 281175 470
104535 746709 509
708276 47116 509
634637 165799 509
925646 921303 445
604566 95366 470
715255 224231 509
742007 508109 509
524297 444128 470
478830 342633 449
119935 96816 354
143394 503236 449
319390 18148 443
28599 97343 351
206491 837153 509
256715 707029 509
485052 762597 509
101536 525237 470
45492 825564 509
518213 357715 470
530463 290076 470
85937 860458 525
948129 947453 295
637609 490961 509
856364 519162 525
537693 664100 509
468525 990028 525
439169 522567 470
127884 774759 509
801386 935294 525
76011 700586 509
734152 468254 509
151178 811688 509
965063 528469 525
795008 887147 525
608830 28198 470
163495 665032 509
410755 591308 470
62144 135956 354
668978 206888 509
613244 69597 470
945438 257908 525
976776 293519 525
227511 776151 509
812223 274021 509
886501 843601 432
707111 326215 509
280064 734144 509
353593 939481 525
999005 994284 440
541821 625685 452
286630 647078 509
654034 251500 509
651872 773191 504
287411 281313 376
818377 273701 509
545995 209663 470
420198 386855 449
982542 291657 525
760072 496912 509
918337 970532 507
193678 422676 449
283119 800609 509
632373 226732 509
762010 8125 509
264168 44933 443
904798 645669 525
221284 52862 386
472027 384240 449
219244 229794 368
586994 507133 470
274564 394882 441
533879 704351 509
324282 740950 509
966828 502686 525
396962 774362 509
216239 304260 443
25897 328275 443
771444 638946 504
899807 976116 507
152501 527875 470
344484 484071 449
888575 297597 525
210423 499412 449
50454 292006 443
226197 935529 525
760522 610388 509
155823 5897 375
326824 226691 443
5954 69390 340
849780 700937 525
395430 279949 441
149238 311823 443
958007 467609 525
691041 488228 509
20895 227250 386
546521 541048 364
394703 939095 525
553584 822524 509
524234 158375 470
907295 32702 525
611519 598501 403
671622 466881 509
946022 162835 525
270321 684520 509
782992 255241 509
707926 900550 525
612060 201251 470
732388 92057 509
265628 430944 449
44510 496483 449
422112 346125 449
562522 948549 525
646428 698444 442
984198 153256 525
640552 474730 509
763815 136104 509
941824 772069 525
805992 616864 509
365437 192347 443
877404 756043 525
488103 348159 449
94558 902155 525
771387 885567 525
755449 977823 525
708715 821086 468
128335 902636 525
384907 284548 441
830238 8652 509
413165 354164 449
751945 847698 525
5507 808462 509
970112 758669 525
24621 118579 354
767673 18923 509
58207 469559 449
645170 465480 509
253005 831104 509
272323 275814 358
591339 113544 470
30894 841164 525
844410 436293 525
402443 537670 470
300678 401564 441
606256 629059 509
725627 268765 509
468989 889604 525
442061 572967 470
991419 180782 525
855566 61473 525
561290 329292 470
605556 855525 525
616950 739255 509
481721 638429 509
538835 730065 509
32558 811237 509
318631 411107 449
931126 665048 525
403075 530733 470
466972 848068 525
320727 221185 443
506384 839347 525
726945 577802 509
865670 231625 525
657648 643740 429
627120 145669 509
574665 449763 470
773052 118286 509
95271 794833 509
740476 451034 509
469330 883381 525
164706 478366 449
854637 402589 525
753284 78333 509
227481 990323 525
972912 320896 525
68777 408465 443
386899 998671 525
512342 193154 470
724888 58460 509
761370 911584 525
362129 815800 509
159972 762429 509
463634 25780 449
159445 909606 525
320690 299709 384
30314 921009 525
313063 370462 441
152800 87466 375
208409 421364 449
852811 657510 525
319502 671495 509
105491 979686 525
172984 671545 509
192015 973442 525
108771 82764 354
783809 282035 509
417323 254369 449
717871 403608 509
371780 511286 449
392630 994727 525
657689 556508 509
589013 656537 509
700789 365411 509
843300 990560 507
930793 290390 525
646171 914585 525
155413 168732 383
868513 171 525
554087 428429 470
62763 954180 525
341167 576467 470
911616 79826 525
468322 432482 444
471922 652961 509
587432 711655 509
850790 22585 525
161595 661539 509
917826 486330 525
459668 137210 449
307096 981209 525
394925 126148 443
747989 829784 468
285138 571679 470
34972 563065 470
802085 926799 525
962775 37489 525
44319 152707 375
134247 327232 443
493163 760725 509
940001 630907 525
956873 710052 525
131907 862971 525
299854 703347 509
620904 973678 525
738986 937484 525
231729 491329 449
28927 950921 525
598717 956819 525
741608 671121 504
705470 731233 411
108470 52695 354
534668 972261 525
215942 805396 509
200218 431487 449
144130 344493 443
728070 198625 509
574720 937588 525
900708 882658 445
346759 905007 525
363036 280492 441
341086 769822 509
657154 786579 504
253901 304939 407
221914 117932 386
142561 915523 525
863661 468348 525
420481 425943 418
184224 71323 383
74373 998553 525
111173 496844 449
42073 855447 525
30394 729122 509
351557 403097 436
820362 627338 504
483961 177470 449
832168 701327 504
618119 17741 470
12102 604131 470
673020 274386 509
146839 969192 525
752526 270806 509
804811 163987 509
749247 367458 509
268137 603454 470
12767 396610 443
951824 478066 525
408782 740919 509
446284 471345 444
977533 628440 525
831193 850361 525
568541 845692 525
617432 41769 470
579051 641857 509
514439 814776 509
119397 248725 443
172787 477200 449
733261 662688 504
630469 188423 509
724087 79188 509
865360 563301 525
659825 150685 509
549446 819468 509
197897 419471 449
925242 215013 525
61491 424281 449
61799 719423 509
516513 380893 470
572667 104771 470
806513 609841 509
913640 778984 525
747557 230834 509
711001 275663 509
702318 160513 509
283348 201729 443
441696 812868 509
689765 481633 509
636595 170136 509
834299 933038 525
923333 500668 525
156461 335962 443
342120 168570 443
163496 122976 383
900572 231080 525
956660 627261 525
642391 117851 509
261657 209415 443
893776 547543 525
939945 838707 507
61394 602000 470
126291 47005 354
921275 22959 525
272067 749714 509
608127 240862 470
563751 672457 509
628415 415402 509
267186 945735 525
443456 457114 387
528708 539308 377
588127 635021 509
349539 918943 525
280731 449531 449
754063 554580 509
715774 894254 525
458695 573743 470
249079 160829 443
929286 450449 525
45569 821918 509
298982 840898 525
49375 661533 509
68641 398754 443
723768 293900 509
81490 618309 470
378896 57817 443
608589 452817 470
