381532 795530 509
252510 511437 449
8639 51131 324
896059 900925 401
449192 484125 444
737294 810803 468
157617 153954 383
832763 423507 509
723301 293736 509
4099 921532 525
637222 677933 442
855678 72091 525
36781 830506 509
815017 980558 525
996557 923632 507
304044 747417 509
443722 180902 449
564707 863540 525
41316 912098 525
434682 912634 525
15902 436119 449
934646 189374 525
851942 564033 525
396548 804463 509
868952 11561 525
264327 859073 525
661909 353421 509
824864 550185 509
224480 578747 470
341360 120401 443
617290 758485 509
418115 923479 525
980090 170011 525
20682 8719 279
626197 139134 470
830443 142168 509
280194 194325 443
267474 363135 441
927568 375757 525
212740 10772 383
423688 417765 418
636763 876148 525
625273 780913 509
102384 647329 509
473726 805990 509
917574 687923 525
780294 720758 468
961289 190734 525
307306 855174 525
928754 409484 525
125657 897629 525
937713 814843 525
535497 458387 470
801421 315636 509
279762 320433 389
372141 455609 449
969863 225269 525
194394 965929 525
426838 629293 509
528956 373056 470
110217 308155 443
548752 546606 452
93717 581900 470
13862 532391 470
752190 426309 509
56945 504325 449
342888 589956 470
44112 357960 443
328597 176404 443
493697 847199 525
300118 371716 441
930654 190576 525
261295 228146 443
95210 526321 470
458575 658338 509
608698 876811 525
772836 549325 509
507529 960801 525
11206 896586 525
725499 915216 525
777063 331424 509
198138 420790 449
222022 135190 386
39195 837310 509
795262 503055 509
330469 353818 441
838924 352836 525
861506 46944 525
87503 772238 509
494738 383745 449
27493 941041 525
467530 915392 525
900916 240231 525
987244 985895 396
815739 136176 509
646406 104760 509
717488 703229 504
301626 995909 525
798504 992039 525
706296 710560 380
252313 240222 368
400650 797379 509
531906 892448 525
261696 881905 525
447930 303580 449
328370 91872 443
594837 89230 470
37349 312834 443
7867 989428 525
598166 608419 403
808565 845791 525
892809 604796 525
6515 611627 470
716005 317922 509
450574 161928 449
779199 209434 509
705151 647781 504
450490 456986 387
495352 955759 525
487183 336153 449
723177 767341 424
154513 700684 509
232668 784392 509
956906 132122 525
180490 91416 383
225618 886759 525
730860 81150 509
125550 576751 470
613259 268475 470
772534 825791 468
834456 313935 509
268678 237437 407
955541 700745 525
993875 159795 525
895404 870417 445
17552 94670 351
572091 218784 470
721117 76748 509
372008 858678 525
845917 797390 525
827836 41069 509
37993 623623 470
596082 946465 525
622313 877964 525
641067 515675 509
763594 482699 509
498185 712441 509
878 716508 509
586 157411 383
439378 383858 449
29665 450301 449
339547 748432 509
190454 327135 443
130356 766156 509
62278 945865 525
92856 657813 509
410347 106844 449
162379 586437 470
108278 955833 525
28423 745054 509
303423 601531 470
374131 323852 441
304919 269734 407
44140 569745 470
964706 446284 525
100151 332153 443
281765 417443 449
335061 785328 509
233257 814907 509
113693 658456 509
955696 461468 525
54119 363485 443
31169 586820 470
852653 907699 445
843295 658533 525
971001 319583 525
874700 262424 525
253086 138670 443
881259 850056 432
342619 403745 441
148515 11155 375
22534 913434 525
544708 970652 525
717901 169362 509
288639 628026 509
604314 979186 525
540390 268948 470
216034 531340 470
38466 384362 443
450615 617729 470
66864 289551 443
812284 365360 509
828393 125660 509
706939 921711 525
173649 821467 509
605029 716769 509
882886 195991 525
36833 60432 340
39789 79174 351
121609 906607 525
615183 679304 509
661517 668918 442
373700 258188 441
244132 730814 509
510586 978327 525
107212 139346 349
390476 956715 525
788253 878783 525
472505 62821 449
303838 727530 509
637550 620866 509
265394 26594 443
263042 342928 407
730669 675628 504
797640 810897 406
955362 474747 525
227849 52605 386
490128 299067 449
53790 291856 443
90994 972651 525
825233 859136 525
245067 332030 407
299383 286171 389
520603 242311 470
156791 12308 383
740196 712762 424
356301 549304 470
896755 714394 525
766023 433024 509
817077 735141 468
144696 766123 509
243428 742835 509
714798 547194 509
965112 575055 525
958233 471055 525
108131 549038 470
236535 907548 525
386031 733903 509
603402 696952 509
963501 908317 507
397514 556667 470
92015 154084 375
542401 601130 452
372388 531674 470
384180 731625 509
299265 990640 525
975589 262695 525
140504 212776 383
690042 289511 509
283019 177696 443
