94141 339477 443
609989 389748 470
896785 400609 525
51575 48286 309
109458 830126 509
169032 375754 443
614812 492597 470
865833 972812 507
537895 203185 470
510211 55985 449
701711 343412 509
27325 530377 470
509635 504726 382
563337 576611 421
582841 507954 470
365892 419477 449
34874 692343 509
855719 707365 525
331563 881349 525
536341 605409 452
728678 669365 504
578641 730943 509
634952 300523 509
838455 609350 525
640744 97801 509
115373 911848 525
620 444831 449
87122 957392 525
693036 381425 509
449621 468437 444
111007 470443 449
515725 828349 509
674944 733641 504
895623 890224 370
162979 740955 509
42586 70183 340
699563 947415 525
117657 503161 449
491321 979946 525
158836 911772 525
175157 166400 347
909793 613782 525
84106 380698 443
677995 571269 509
494840 13003 449
630743 321774 509
746070 179433 509
854549 523508 525
387426 175219 443
523826 148246 470
175240 74844 383
9157 466440 449
962314 222223 525
311948 173735 443
578069 833900 509
625733 304801 470
2060 234328 443
864694 998004 507
377980 188156 443
122660 329741 443
57938 359064 443
500828 476549 426
564722 407359 470
246861 108089 443
73988 200295 383
233492 85933 443
979189 651306 525
550080 822129 509
830269 829525 375
991340 823284 525
503898 794315 509
79680 456797 449
681591 852625 525
536092 76888 470
241635 201160 443
178212 544853 470
528545 846090 525
235584 165280 443
355733 242481 441
621857 566931 447
214421 778151 509
958084 629817 525
93379 606527 470
419521 168750 449
772058 796681 468
438698 369114 449
265475 948233 525
540141 726945 509
528863 631750 509
30622 204387 383
593358 910908 525
327338 863594 525
709370 85157 509
806788 187797 509
594442 946376 525
497736 25438 449
472879 465603 413
484012 582599 470
319049 222366 443
735421 258206 509
502210 470997 426
8564 717127 509
331378 483801 449
361883 548162 470
324342 393677 441
861779 291643 525
383930 118438 443
687109 64048 509
740604 247844 509
67538 124171 354
168812 30892 383
352139 445926 449
161699 161181 277
748707 60764 509
720103 150256 509
737223 826026 468
201581 129397 383
156328 401638 443
182304 689996 509
2812 215040 383
397618 223564 443
893765 81022 525
594441 182213 470
352102 498104 449
544391 656507 509
15923 196465 383
737001 720684 424
586948 814507 509
547030 525063 452
921379 398375 525
668869 765869 504
99929 545373 470
862064 865512 388
79442 943373 525
258084 510205 449
92732 803556 509
128624 570001 470
940931 15495 525
638322 623822 509
239318 562845 470
580567 353418 470
70759 674288 509
284988 913690 525
503150 595185 470
370725 734620 509
620919 248390 470
577070 972314 525
710552 881104 525
57464 240284 443
282200 844842 525
537023 858863 525
409793 529778 470
73834 119792 354
610001 853169 525
260187 633802 509
610531 675652 509
419695 316024 449
312056 722373 509
52299 845988 525
738698 701996 504
480030 343330 449
920218 150530 525
891134 263962 525
300978 116000 443
964091 763373 525
242984 629459 509
553202 462470 470
538942 662915 509
642434 293352 509
197531 993424 525
214414 148251 383
531890 754048 509
764888 958488 525
945889 753789 525
623659 725286 509
631693 46165 509
131573 495044 449
504478 848220 525
688199 177010 509
622196 101484 470
516276 590336 452
292174 22612 443
179394 13233 383
580012 766922 509
547463 52006 470
375406 456508 449
553209 286631 470
729159 538652 509
312641 240705 407
682175 756386 504
873656 718454 525
311727 347773 441
140924 765864 509
100213 965334 525
551921 990612 525
170576 999962 525
755647 409651 509
955779 139047 525
759475 344618 509
49445 271528 443
